{
  "type": "service_account",
  "project_id": "reliable-return-345206",
  "private_key_id": "03df203554aa7d73f40b0710a23925565d4364ee",
  "private_key": "-----BEGIN PRIVATE KEY-----\nMIIEvAIBADANBgkqhkiG9w0BAQEFAASCBKYwggSiAgEAAoIBAQCWp8slXCHnkShc\n7YZr2CcGpRd9UOLPlSzKz4PCuooPClw+2OGqaB7AtO1IAyPs7ixTJbyyhe5JWGwP\n+IeNv/oBvGDO4h1q9MYrECMlwV3CcDosXkr9aOxJMmZMuMH9jrsgcSTQncDoHBmU\nrtN9eSruLREYNBu8lsZQRclg4C7/QlExUhXZpDexCQ0siqOHukElw6aHUuC9Cfdg\nPQStIt0iO3aJUnP5fijaM/9zEAXuoL3nBad6j1VhczchhE1aQFVRnloa4nbLc8iT\nmM7QR66cH6SwJZIl7c924Be9XWJGvAmUPon/qJjnI+f8rwVabj0UV3ZjY6q6ORF8\nLRv/f6lJAgMBAAECggEAFJW4sXzKj9QgVRI0sRJHwtCr9PjTBNS32hOgnUAqZ65d\nYaOgsff9ZmH89JSj7quxwr//7c9UT7vqiAQdVsZJvWhP50oIsE83BItKl3i5puek\nCzaXEyj9oBgS154nDiOCeLGnphmSp3mvb8azfwwfTDaRhLfEp8Vc3iWq7mGzX40q\nf0qj/zdoDrgvxmhZDic/VGjoX7SMoPjAuNbcQ48YZKXO0PlMD7l7UNIlzLP8xqAy\ngTYPANrkSs6jeboUIXQGJcYU4FPkqNws8mPaywGR0KYxFDGATUjotwtckuP9xpXf\nhmWy8KAWlSUQK0HunTuFl0EKbMu1oqBF7utTY/E9QQKBgQDGYC/lwUagIhruOfoA\nWHOtiCXtT81uug2s5Xs++Wq1YKIVtIzIjurqorwhHSTZf6DzkNnF104p2P1Jk5TB\n4hW4ZV66K1rF91bvbdPv+KzTtiFeMT6JqQ9cZrhwJF5223t0qIYl2Szpp/jjR1fM\nmXJ7aIxYznadzQQVF9d9M1NWKwKBgQDCavurxdt6ad9fycZ5rdGM4OzyweastTk7\nL9Q6WZa6LK+KQxUKJfT3eu7pf7iWQB/adVX1G+G6Y3qNGwq++ugSC8P4fbAbCqx2\nihKPIc9lbogPdiNIj4MZkEReTwfleaH9KmOnqr30xtcBzV8FPgaAVXUS0W8xHCbd\nxKkb2GQYWwKBgGAOd2LzQbWMjinInQvJyMnAYU0WFU2GfdS4kgMeVtNY5WNJN9pt\nicbv4dTO/ebrbA5El467ALg2v/7+nUt8pDPTshjHoX62k7wAHF3YticVy/aGNdgG\nqs99VdXHZo57HL6SU9LD5IGHunajNxp1OwAS0dK2tq0WduGX19piHfpdAoGAC7V7\nwMWiyUWVEWTKkkt4ol5thtVMujwT3U+tHXKF1GKak94kZz8P+NOrjd6GVG46POLy\nMVfjiWEyYUsuo3/i+CtDOzT+pTJIXr9EDODBZ993TE8WIumZwLFinLdvx09DBUdH\nRzLOS+6pxk8DGQK6S4JaEa8RXkjOwm50rNukc58CgYBm6mSwK7D9xGC4YY+iT1ym\nxafuprMzZG4A5maFCge0jgx/DRL3/L33XIZdpglXQiq1pumFuoFHN6fPWjBFpV8O\njAKze4O3tEKjulEYHYKcJz+OcILLy7ssit7t/89PV7a35zPxN3qVF962IxPHE2DX\nIz73ykgZcyp31J7bjHZGTw==\n-----END PRIVATE KEY-----\n",
  "client_email": "tf-sa-895@reliable-return-345206.iam.gserviceaccount.com",
  "client_id": "112473265716336825999",
  "auth_uri": "https://accounts.google.com/o/oauth2/auth",
  "token_uri": "https://oauth2.googleapis.com/token",
  "auth_provider_x509_cert_url": "https://www.googleapis.com/oauth2/v1/certs",
  "client_x509_cert_url": "https://www.googleapis.com/robot/v1/metadata/x509/tf-sa-895%40reliable-return-345206.iam.gserviceaccount.com"
}

